%YAML 1.1
%TAG !u! tag:unity3d.com,2011:
--- !u!1001 &7151048695687084726
PrefabInstance:
  m_ObjectHideFlags: 0
  serializedVersion: 2
  m_Modification:
    m_TransformParent: {fileID: 0}
    m_Modifications:
    - target: {fileID: 5130379943918717379, guid: dc14f7d1e51ee4a299a428fa15294de6,
        type: 3}
      propertyPath: m_LocalPosition.x
      value: 0
      objectReference: {fileID: 0}
    - target: {fileID: 5130379943918717379, guid: dc14f7d1e51ee4a299a428fa15294de6,
        type: 3}
      propertyPath: m_LocalPosition.y
      value: 0
      objectReference: {fileID: 0}
    - target: {fileID: 5130379943918717379, guid: dc14f7d1e51ee4a299a428fa15294de6,
        type: 3}
      propertyPath: m_LocalPosition.z
      value: 0
      objectReference: {fileID: 0}
    - target: {fileID: 5130379943918717379, guid: dc14f7d1e51ee4a299a428fa15294de6,
        type: 3}
      propertyPath: m_LocalRotation.x
      value: 0
      objectReference: {fileID: 0}
    - target: {fileID: 5130379943918717379, guid: dc14f7d1e51ee4a299a428fa15294de6,
        type: 3}
      propertyPath: m_LocalRotation.y
      value: 0
      objectReference: {fileID: 0}
    - target: {fileID: 5130379943918717379, guid: dc14f7d1e51ee4a299a428fa15294de6,
        type: 3}
      propertyPath: m_LocalRotation.z
      value: 0
      objectReference: {fileID: 0}
    - target: {fileID: 5130379943918717379, guid: dc14f7d1e51ee4a299a428fa15294de6,
        type: 3}
      propertyPath: m_LocalRotation.w
      value: 1
      objectReference: {fileID: 0}
    - target: {fileID: 5130379943918717379, guid: dc14f7d1e51ee4a299a428fa15294de6,
        type: 3}
      propertyPath: m_RootOrder
      value: 0
      objectReference: {fileID: 0}
    - target: {fileID: 5130379943918717379, guid: dc14f7d1e51ee4a299a428fa15294de6,
        type: 3}
      propertyPath: m_LocalEulerAnglesHint.x
      value: 0
      objectReference: {fileID: 0}
    - target: {fileID: 5130379943918717379, guid: dc14f7d1e51ee4a299a428fa15294de6,
        type: 3}
      propertyPath: m_LocalEulerAnglesHint.y
      value: 0
      objectReference: {fileID: 0}
    - target: {fileID: 5130379943918717379, guid: dc14f7d1e51ee4a299a428fa15294de6,
        type: 3}
      propertyPath: m_LocalEulerAnglesHint.z
      value: 0
      objectReference: {fileID: 0}
    - target: {fileID: 5130379943918717383, guid: dc14f7d1e51ee4a299a428fa15294de6,
        type: 3}
      propertyPath: m_Name
      value: DogeSentado
      objectReference: {fileID: 0}
    - target: {fileID: 5130379945717484852, guid: dc14f7d1e51ee4a299a428fa15294de6,
        type: 3}
      propertyPath: m_Sprite
      value: 
      objectReference: {fileID: 21300000, guid: 1c1291bdd1c894685943032e67cf7add,
        type: 3}
    m_RemovedComponents: []
  m_SourcePrefab: {fileID: 100100000, guid: dc14f7d1e51ee4a299a428fa15294de6, type: 3}
